{
  "firstName": "Arman-Paul",
  "lastName": "Pogosjan",
  "passwordHash": "2ed036162731c8404912c5cad523f2169861f63323001981080822ac485c8dc6",
  "formOfStudy": "S",
  "iHaveReadTheRulesOfTheCourse": true
}
